[
  {
    "new_entries": {"has_next": false, "number": 1, "results": []},
    "league": {
      "id": 1,
      "name": "Test",
      "created": "2017-07-12T10:36:17Z",
      "closed": true,
      "start_event": 1
    },
    "standings": {
      "has_next": true,
      "number": 1,
      "results": [
        {
          "id": 1,
          "entry_name": "Test_1",
          "event_total": 70,
          "player_name": "Test 1",
          "movement": "down",
          "own_entry": false,
          "rank": 1,
          "last_rank": 1,
          "rank_sort": 1,
          "total": 1436,
          "entry": 100,
          "league": 1827,
          "start_event": 1,
          "stop_event": 38
        },
        {
          "id": 2,
          "entry_name": "Test_2",
          "event_total": 88,
          "player_name": "Test 2",
          "movement": "up",
          "own_entry": false,
          "rank": 2,
          "last_rank": 2,
          "rank_sort": 2,
          "total": 1436,
          "entry": 705721,
          "league": 1827,
          "start_event": 1,
          "stop_event": 38
        },
        {
          "id": 3,
          "entry_name": "Test_3",
          "event_total": 78,
          "player_name": "Test 3",
          "movement": "up",
          "own_entry": false,
          "rank": 3,
          "last_rank": 3,
          "rank_sort": 3,
          "total": 1428,
          "entry": 232470,
          "league": 1827,
          "start_event": 1,
          "stop_event": 38
        },
        {
          "id": 4,
          "entry_name": "Test_4",
          "event_total": 53,
          "player_name": "Test 4",
          "movement": "down",
          "own_entry": false,
          "rank": 4,
          "last_rank": 4,
          "rank_sort": 4,
          "total": 1427,
          "entry": 641905,
          "league": 1827,
          "start_event": 1,
          "stop_event": 38
        }
      ]
    },
    "update_status": 0
  },
  {
    "new_entries": {"has_next": false, "number": 1, "results": []},
    "league": {
      "id": 1,
      "name": "Test",
      "created": "2017-07-12T10:36:17Z",
      "closed": true,
      "start_event": 1
    },
    "standings": {
      "has_next": true,
      "number": 2,
      "results": [
        {
          "id": 5,
          "entry_name": "Test_5",
          "event_total": 90,
          "player_name": "Test 5",
          "movement": "up",
          "own_entry": false,
          "rank": 5,
          "last_rank": 5,
          "rank_sort": 5,
          "total": 1423,
          "entry": 610872,
          "league": 1827,
          "start_event": 1,
          "stop_event": 38
        },
        {
          "id": 6,
          "entry_name": "Test_6",
          "event_total": 65,
          "player_name": "Test 6",
          "movement": "down",
          "own_entry": false,
          "rank": 6,
          "last_rank": 6,
          "rank_sort": 6,
          "total": 1423,
          "entry": 1374,
          "league": 1827,
          "start_event": 1,
          "stop_event": 38
        },
        {
          "id": 7,
          "entry_name": "Test_7",
          "event_total": 72,
          "player_name": "Test 7",
          "movement": "same",
          "own_entry": false,
          "rank": 7,
          "last_rank": 7,
          "rank_sort": 7,
          "total": 1418,
          "entry": 21561,
          "league": 1827,
          "start_event": 1,
          "stop_event": 38
        }
      ]
    },
    "update_status": 0
  }
]
